%YAML 1.1
%TAG !u! tag:unity3d.com,2011:
--- !u!1 &100000
GameObject:
  m_ObjectHideFlags: 0
  m_PrefabParentObject: {fileID: 0}
  m_PrefabInternal: {fileID: 100100000}
  serializedVersion: 4
  m_Component:
  - 4: {fileID: 400000}
  - 114: {fileID: 11400000}
  m_Layer: 0
  m_Name: EHSMB
  m_TagString: Untagged
  m_Icon: {fileID: 0}
  m_NavMeshLayer: 0
  m_StaticEditorFlags: 0
  m_IsActive: 1
--- !u!4 &400000
Transform:
  m_ObjectHideFlags: 1
  m_PrefabParentObject: {fileID: 0}
  m_PrefabInternal: {fileID: 100100000}
  m_GameObject: {fileID: 100000}
  m_LocalRotation: {x: 0, y: 0, z: 0, w: 1}
  m_LocalPosition: {x: 0, y: 0, z: 0}
  m_LocalScale: {x: 1, y: 1, z: 1}
  m_Children: []
  m_Father: {fileID: 0}
--- !u!114 &11400000
MonoBehaviour:
  m_ObjectHideFlags: 1
  m_PrefabParentObject: {fileID: 0}
  m_PrefabInternal: {fileID: 100100000}
  m_GameObject: {fileID: 100000}
  m_Enabled: 1
  m_EditorHideFlags: 0
  m_Script: {fileID: 11500000, guid: 0b4eb3a400afab046abb8471a9d746d6, type: 3}
  m_Name: 
  m_EditorClassIdentifier: 
  mMat: {fileID: 2100000, guid: 2702da21a9e57ad429b47020455a7fa8, type: 2}
  mUVRect:
    serializedVersion: 2
    x: 0
    y: .602539062
    width: .25
    height: .25
  mFont:
    mSize: 32
    mBase: 27
    mWidth: 256
    mHeight: 256
    mSpriteName: EHSMB_0
    mSaved:
    - index: 32
      x: 252
      y: 24
      width: 3
      height: 1
      offsetX: -1
      offsetY: 31
      advance: 19
      channel: 15
      kerning: 
    - index: 33
      x: 247
      y: 24
      width: 4
      height: 23
      offsetX: 8
      offsetY: 2
      advance: 19
      channel: 15
      kerning: 
    - index: 34
      x: 242
      y: 120
      width: 11
      height: 10
      offsetX: 4
      offsetY: 2
      advance: 19
      channel: 15
      kerning: 
    - index: 35
      x: 57
      y: 0
      width: 18
      height: 23
      offsetX: 1
      offsetY: 2
      advance: 19
      channel: 15
      kerning: 
    - index: 36
      x: 76
      y: 0
      width: 18
      height: 23
      offsetX: 1
      offsetY: 2
      advance: 19
      channel: 15
      kerning: 
    - index: 37
      x: 95
      y: 0
      width: 18
      height: 23
      offsetX: 1
      offsetY: 2
      advance: 19
      channel: 15
      kerning: 
    - index: 38
      x: 114
      y: 0
      width: 18
      height: 23
      offsetX: 1
      offsetY: 2
      advance: 19
      channel: 15
      kerning: 
    - index: 39
      x: 247
      y: 103
      width: 5
      height: 10
      offsetX: 7
      offsetY: 2
      advance: 19
      channel: 15
      kerning: 
    - index: 40
      x: 75
      y: 120
      width: 11
      height: 23
      offsetX: 4
      offsetY: 2
      advance: 19
      channel: 15
      kerning: 
    - index: 41
      x: 87
      y: 120
      width: 11
      height: 23
      offsetX: 4
      offsetY: 2
      advance: 19
      channel: 15
      kerning: 
    - index: 42
      x: 147
      y: 120
      width: 18
      height: 16
      offsetX: 1
      offsetY: 6
      advance: 19
      channel: 15
      kerning: 
    - index: 43
      x: 185
      y: 120
      width: 18
      height: 16
      offsetX: 1
      offsetY: 6
      advance: 19
      channel: 15
      kerning: 
    - index: 44
      x: 247
      y: 89
      width: 8
      height: 13
      offsetX: 4
      offsetY: 19
      advance: 19
      channel: 15
      kerning: 
    - index: 45
      x: 59
      y: 144
      width: 18
      height: 3
      offsetX: 1
      offsetY: 12
      advance: 19
      channel: 15
      kerning: 
    - index: 46
      x: 50
      y: 144
      width: 8
      height: 6
      offsetX: 4
      offsetY: 19
      advance: 19
      channel: 15
      kerning: 
    - index: 47
      x: 166
      y: 120
      width: 18
      height: 16
      offsetX: 1
      offsetY: 6
      advance: 19
      channel: 15
      kerning: 
    - index: 48
      x: 57
      y: 24
      width: 18
      height: 23
      offsetX: 1
      offsetY: 2
      advance: 19
      channel: 15
      kerning: 
    - index: 49
      x: 62
      y: 120
      width: 12
      height: 23
      offsetX: 4
      offsetY: 2
      advance: 19
      channel: 15
      kerning: 
    - index: 50
      x: 95
      y: 24
      width: 18
      height: 23
      offsetX: 1
      offsetY: 2
      advance: 19
      channel: 15
      kerning: 
    - index: 51
      x: 114
      y: 24
      width: 18
      height: 23
      offsetX: 1
      offsetY: 2
      advance: 19
      channel: 15
      kerning: 
    - index: 52
      x: 133
      y: 24
      width: 18
      height: 23
      offsetX: 1
      offsetY: 2
      advance: 19
      channel: 15
      kerning: 
    - index: 53
      x: 152
      y: 24
      width: 18
      height: 23
      offsetX: 1
      offsetY: 2
      advance: 19
      channel: 15
      kerning: 
    - index: 54
      x: 0
      y: 0
      width: 18
      height: 23
      offsetX: 1
      offsetY: 2
      advance: 19
      channel: 15
      kerning: 
    - index: 55
      x: 190
      y: 24
      width: 18
      height: 23
      offsetX: 1
      offsetY: 2
      advance: 19
      channel: 15
      kerning: 
    - index: 56
      x: 209
      y: 24
      width: 18
      height: 23
      offsetX: 1
      offsetY: 2
      advance: 19
      channel: 15
      kerning: 
    - index: 57
      x: 228
      y: 24
      width: 18
      height: 23
      offsetX: 1
      offsetY: 2
      advance: 19
      channel: 15
      kerning: 
    - index: 58
      x: 247
      y: 72
      width: 8
      height: 16
      offsetX: 4
      offsetY: 6
      advance: 19
      channel: 15
      kerning: 
    - index: 59
      x: 247
      y: 0
      width: 8
      height: 23
      offsetX: 4
      offsetY: 6
      advance: 19
      channel: 15
      kerning: 
    - index: 60
      x: 32
      y: 120
      width: 14
      height: 23
      offsetX: 1
      offsetY: 2
      advance: 19
      channel: 15
      kerning: 
    - index: 61
      x: 223
      y: 120
      width: 18
      height: 10
      offsetX: 1
      offsetY: 9
      advance: 19
      channel: 15
      kerning: 
    - index: 62
      x: 0
      y: 120
      width: 15
      height: 23
      offsetX: 1
      offsetY: 2
      advance: 19
      channel: 15
      kerning: 
    - index: 63
      x: 95
      y: 48
      width: 18
      height: 23
      offsetX: 1
      offsetY: 2
      advance: 19
      channel: 15
      kerning: 
    - index: 64
      x: 114
      y: 48
      width: 18
      height: 23
      offsetX: 1
      offsetY: 2
      advance: 19
      channel: 15
      kerning: 
    - index: 65
      x: 133
      y: 48
      width: 18
      height: 23
      offsetX: 1
      offsetY: 2
      advance: 19
      channel: 15
      kerning: 
    - index: 66
      x: 152
      y: 48
      width: 18
      height: 23
      offsetX: 1
      offsetY: 2
      advance: 19
      channel: 15
      kerning: 
    - index: 67
      x: 171
      y: 48
      width: 18
      height: 23
      offsetX: 1
      offsetY: 2
      advance: 19
      channel: 15
      kerning: 
    - index: 68
      x: 190
      y: 48
      width: 18
      height: 23
      offsetX: 1
      offsetY: 2
      advance: 19
      channel: 15
      kerning: 
    - index: 69
      x: 209
      y: 48
      width: 18
      height: 23
      offsetX: 1
      offsetY: 2
      advance: 19
      channel: 15
      kerning: 
    - index: 70
      x: 228
      y: 48
      width: 18
      height: 23
      offsetX: 1
      offsetY: 2
      advance: 19
      channel: 15
      kerning: 
    - index: 71
      x: 0
      y: 72
      width: 18
      height: 23
      offsetX: 1
      offsetY: 2
      advance: 19
      channel: 15
      kerning: 
    - index: 72
      x: 19
      y: 72
      width: 18
      height: 23
      offsetX: 1
      offsetY: 2
      advance: 19
      channel: 15
      kerning: 
    - index: 73
      x: 99
      y: 120
      width: 11
      height: 23
      offsetX: 4
      offsetY: 2
      advance: 19
      channel: 15
      kerning: 
    - index: 74
      x: 57
      y: 72
      width: 18
      height: 23
      offsetX: 1
      offsetY: 2
      advance: 19
      channel: 15
      kerning: 
    - index: 75
      x: 76
      y: 72
      width: 18
      height: 23
      offsetX: 1
      offsetY: 2
      advance: 19
      channel: 15
      kerning: 
    - index: 76
      x: 95
      y: 72
      width: 18
      height: 23
      offsetX: 1
      offsetY: 2
      advance: 19
      channel: 15
      kerning: 
    - index: 77
      x: 114
      y: 72
      width: 18
      height: 23
      offsetX: 1
      offsetY: 2
      advance: 19
      channel: 15
      kerning: 
    - index: 78
      x: 133
      y: 72
      width: 18
      height: 23
      offsetX: 1
      offsetY: 2
      advance: 19
      channel: 15
      kerning: 
    - index: 79
      x: 209
      y: 0
      width: 18
      height: 23
      offsetX: 1
      offsetY: 2
      advance: 19
      channel: 15
      kerning: 
    - index: 80
      x: 171
      y: 72
      width: 18
      height: 23
      offsetX: 1
      offsetY: 2
      advance: 19
      channel: 15
      kerning: 
    - index: 81
      x: 190
      y: 72
      width: 18
      height: 23
      offsetX: 1
      offsetY: 2
      advance: 19
      channel: 15
      kerning: 
    - index: 82
      x: 209
      y: 72
      width: 18
      height: 23
      offsetX: 1
      offsetY: 2
      advance: 19
      channel: 15
      kerning: 
    - index: 83
      x: 228
      y: 72
      width: 18
      height: 23
      offsetX: 1
      offsetY: 2
      advance: 19
      channel: 15
      kerning: 
    - index: 84
      x: 0
      y: 96
      width: 18
      height: 23
      offsetX: 1
      offsetY: 2
      advance: 19
      channel: 15
      kerning: 
    - index: 85
      x: 19
      y: 96
      width: 18
      height: 23
      offsetX: 1
      offsetY: 2
      advance: 19
      channel: 15
      kerning: 
    - index: 86
      x: 38
      y: 96
      width: 18
      height: 23
      offsetX: 1
      offsetY: 2
      advance: 19
      channel: 15
      kerning: 
    - index: 87
      x: 57
      y: 96
      width: 18
      height: 23
      offsetX: 1
      offsetY: 2
      advance: 19
      channel: 15
      kerning: 
    - index: 88
      x: 76
      y: 96
      width: 18
      height: 23
      offsetX: 1
      offsetY: 2
      advance: 19
      channel: 15
      kerning: 
    - index: 89
      x: 95
      y: 96
      width: 18
      height: 23
      offsetX: 1
      offsetY: 2
      advance: 19
      channel: 15
      kerning: 
    - index: 90
      x: 114
      y: 96
      width: 18
      height: 23
      offsetX: 1
      offsetY: 2
      advance: 19
      channel: 15
      kerning: 
    - index: 91
      x: 111
      y: 120
      width: 11
      height: 23
      offsetX: 4
      offsetY: 2
      advance: 19
      channel: 15
      kerning: 
    - index: 92
      x: 204
      y: 120
      width: 18
      height: 16
      offsetX: 1
      offsetY: 6
      advance: 19
      channel: 15
      kerning: 
    - index: 93
      x: 135
      y: 120
      width: 11
      height: 23
      offsetX: 4
      offsetY: 2
      advance: 19
      channel: 15
      kerning: 
    - index: 94
      x: 0
      y: 144
      width: 18
      height: 10
      offsetX: 1
      offsetY: 2
      advance: 19
      channel: 15
      kerning: 
    - index: 95
      x: 78
      y: 144
      width: 18
      height: 3
      offsetX: 1
      offsetY: 22
      advance: 19
      channel: 15
      kerning: 
    - index: 96
      x: 19
      y: 144
      width: 11
      height: 10
      offsetX: 1
      offsetY: 2
      advance: 13
      channel: 15
      kerning: 
    - index: 97
      x: 133
      y: 96
      width: 18
      height: 23
      offsetX: 1
      offsetY: 2
      advance: 19
      channel: 15
      kerning: 
    - index: 98
      x: 152
      y: 96
      width: 18
      height: 23
      offsetX: 1
      offsetY: 2
      advance: 19
      channel: 15
      kerning: 
    - index: 99
      x: 171
      y: 96
      width: 18
      height: 23
      offsetX: 1
      offsetY: 2
      advance: 19
      channel: 15
      kerning: 
    - index: 100
      x: 190
      y: 96
      width: 18
      height: 23
      offsetX: 1
      offsetY: 2
      advance: 19
      channel: 15
      kerning: 
    - index: 101
      x: 209
      y: 96
      width: 18
      height: 23
      offsetX: 1
      offsetY: 2
      advance: 19
      channel: 15
      kerning: 
    - index: 102
      x: 228
      y: 96
      width: 18
      height: 23
      offsetX: 1
      offsetY: 2
      advance: 19
      channel: 15
      kerning: 
    - index: 103
      x: 19
      y: 0
      width: 18
      height: 23
      offsetX: 1
      offsetY: 2
      advance: 19
      channel: 15
      kerning: 
    - index: 104
      x: 38
      y: 0
      width: 18
      height: 23
      offsetX: 1
      offsetY: 2
      advance: 19
      channel: 15
      kerning: 
    - index: 105
      x: 123
      y: 120
      width: 11
      height: 23
      offsetX: 4
      offsetY: 2
      advance: 19
      channel: 15
      kerning: 
    - index: 106
      x: 133
      y: 0
      width: 18
      height: 23
      offsetX: 1
      offsetY: 2
      advance: 19
      channel: 15
      kerning: 
    - index: 107
      x: 152
      y: 0
      width: 18
      height: 23
      offsetX: 1
      offsetY: 2
      advance: 19
      channel: 15
      kerning: 
    - index: 108
      x: 171
      y: 0
      width: 18
      height: 23
      offsetX: 1
      offsetY: 2
      advance: 19
      channel: 15
      kerning: 
    - index: 109
      x: 190
      y: 0
      width: 18
      height: 23
      offsetX: 1
      offsetY: 2
      advance: 19
      channel: 15
      kerning: 
    - index: 110
      x: 228
      y: 0
      width: 18
      height: 23
      offsetX: 1
      offsetY: 2
      advance: 19
      channel: 15
      kerning: 
    - index: 111
      x: 0
      y: 24
      width: 18
      height: 23
      offsetX: 1
      offsetY: 2
      advance: 19
      channel: 15
      kerning: 
    - index: 112
      x: 19
      y: 24
      width: 18
      height: 23
      offsetX: 1
      offsetY: 2
      advance: 19
      channel: 15
      kerning: 
    - index: 113
      x: 38
      y: 24
      width: 18
      height: 23
      offsetX: 1
      offsetY: 2
      advance: 19
      channel: 15
      kerning: 
    - index: 114
      x: 76
      y: 24
      width: 18
      height: 23
      offsetX: 1
      offsetY: 2
      advance: 19
      channel: 15
      kerning: 
    - index: 115
      x: 152
      y: 72
      width: 18
      height: 23
      offsetX: 1
      offsetY: 2
      advance: 19
      channel: 15
      kerning: 
    - index: 116
      x: 171
      y: 24
      width: 18
      height: 23
      offsetX: 1
      offsetY: 2
      advance: 19
      channel: 15
      kerning: 
    - index: 117
      x: 0
      y: 48
      width: 18
      height: 23
      offsetX: 1
      offsetY: 2
      advance: 19
      channel: 15
      kerning: 
    - index: 118
      x: 19
      y: 48
      width: 18
      height: 23
      offsetX: 1
      offsetY: 2
      advance: 19
      channel: 15
      kerning: 
    - index: 119
      x: 38
      y: 48
      width: 18
      height: 23
      offsetX: 1
      offsetY: 2
      advance: 19
      channel: 15
      kerning: 
    - index: 120
      x: 57
      y: 48
      width: 18
      height: 23
      offsetX: 1
      offsetY: 2
      advance: 19
      channel: 15
      kerning: 
    - index: 121
      x: 76
      y: 48
      width: 18
      height: 23
      offsetX: 1
      offsetY: 2
      advance: 19
      channel: 15
      kerning: 
    - index: 122
      x: 38
      y: 72
      width: 18
      height: 23
      offsetX: 1
      offsetY: 2
      advance: 19
      channel: 15
      kerning: 
    - index: 123
      x: 47
      y: 120
      width: 14
      height: 23
      offsetX: 1
      offsetY: 2
      advance: 19
      channel: 15
      kerning: 
    - index: 124
      x: 247
      y: 48
      width: 4
      height: 23
      offsetX: 8
      offsetY: 2
      advance: 19
      channel: 15
      kerning: 
    - index: 125
      x: 16
      y: 120
      width: 15
      height: 23
      offsetX: 4
      offsetY: 2
      advance: 19
      channel: 15
      kerning: 
    - index: 126
      x: 31
      y: 144
      width: 18
      height: 7
      offsetX: 1
      offsetY: 12
      advance: 19
      channel: 15
      kerning: 
  mSpacingX: 0
  mSpacingY: 0
  mAtlas: {fileID: 11400000, guid: b90563ffb9490cd4bb1bcf6efd4ba156, type: 2}
  mReplacement: {fileID: 0}
  mPixelSize: 1
  mSymbols: []
--- !u!1001 &100100000
Prefab:
  m_ObjectHideFlags: 1
  serializedVersion: 2
  m_Modification:
    m_TransformParent: {fileID: 0}
    m_Modifications: []
    m_RemovedComponents: []
  m_ParentPrefab: {fileID: 0}
  m_RootGameObject: {fileID: 100000}
  m_IsPrefabParent: 1
  m_IsExploded: 1
