%YAML 1.1
%TAG !u! tag:unity3d.com,2011:
--- !u!74 &7400000
AnimationClip:
  m_ObjectHideFlags: 0
  m_PrefabParentObject: {fileID: 0}
  m_PrefabInternal: {fileID: 0}
  m_Name: EvilThunder
  serializedVersion: 3
  m_AnimationType: 1
  m_Compressed: 0
  m_RotationCurves: []
  m_CompressedRotationCurves: []
  m_PositionCurves: []
  m_ScaleCurves: []
  m_FloatCurves:
  - curve:
      serializedVersion: 2
      m_Curve:
      - time: 0
        value: 1
        inSlope: 0
        outSlope: 0
        tangentMode: 10
      - time: .466666669
        value: 1
        inSlope: 0
        outSlope: 0
        tangentMode: 10
      - time: .966666639
        value: 1
        inSlope: 0
        outSlope: 0
        tangentMode: 10
      - time: 1.2833333
        value: 1
        inSlope: 0
        outSlope: 0
        tangentMode: 10
      - time: 1.63333333
        value: 1
        inSlope: 0
        outSlope: 0
        tangentMode: 10
      - time: 1.7833333
        value: 1
        inSlope: 0
        outSlope: 0
        tangentMode: 10
      - time: 2.4666667
        value: 1
        inSlope: 0
        outSlope: 0
        tangentMode: 10
      m_PreInfinity: 2
      m_PostInfinity: 2
    attribute: m_Color.r
    path: 
    classID: 108
    script: {fileID: 0}
  - curve:
      serializedVersion: 2
      m_Curve:
      - time: 0
        value: 1
        inSlope: 1.99985385
        outSlope: 1.99985385
        tangentMode: 10
      - time: .400000006
        value: 1.79994154
        inSlope: .761288106
        outSlope: .761288106
        tangentMode: 10
      - time: 1.14999998
        value: 1.44198334
        inSlope: .194709167
        outSlope: .194709167
        tangentMode: 10
      - time: 1.66666663
        value: 1.88977623
        inSlope: -.118091375
        outSlope: -.118091375
        tangentMode: 10
      - time: 2.45000005
        value: 1.02585447
        inSlope: -1.10287869
        outSlope: -1.10287869
        tangentMode: 10
      m_PreInfinity: 2
      m_PostInfinity: 2
    attribute: m_Intensity
    path: 
    classID: 108
    script: {fileID: 0}
  - curve:
      serializedVersion: 2
      m_Curve:
      - time: 0
        value: 0
        inSlope: 23.5132217
        outSlope: 23.5132217
        tangentMode: 10
      - time: .349999994
        value: 8.22962761
        inSlope: 11.3286457
        outSlope: 11.3286457
        tangentMode: 10
      - time: .700000048
        value: 7.9300518
        inSlope: .123713642
        outSlope: .123713642
        tangentMode: 10
      - time: .933333278
        value: 8.18750191
        inSlope: -5.88963127
        outSlope: -5.88963127
        tangentMode: 10
      - time: 1.26666665
        value: 3.89329457
        inSlope: -3.2511301
        outSlope: -3.2511301
        tangentMode: 10
      - time: 1.64999998
        value: 6.33909941
        inSlope: -2.80302906
        outSlope: -2.80302906
        tangentMode: 10
      - time: 1.96666658
        value: 2.54340076
        inSlope: -7.90191841
        outSlope: -7.90191841
        tangentMode: 10
      - time: 2.20000005
        value: 1.65266943
        inSlope: -4.67577887
        outSlope: -4.67577887
        tangentMode: 10
      - time: 2.48333335
        value: .0846633911
        inSlope: -5.53413963
        outSlope: -5.53413963
        tangentMode: 10
      m_PreInfinity: 2
      m_PostInfinity: 2
    attribute: m_Range
    path: 
    classID: 108
    script: {fileID: 0}
  - curve:
      serializedVersion: 2
      m_Curve:
      - time: 0
        value: .305970132
        inSlope: -.655650258
        outSlope: -.655650258
        tangentMode: 10
      - time: .466666669
        value: 0
        inSlope: .945495665
        outSlope: .945495665
        tangentMode: 10
      - time: .733333349
        value: .679104447
        inSlope: .329823852
        outSlope: .329823852
        tangentMode: 10
      - time: .966666639
        value: .23880595
        inSlope: -.686318517
        outSlope: -.686318517
        tangentMode: 10
      - time: 1.2833333
        value: .401685625
        inSlope: -.0607945919
        outSlope: -.0607945919
        tangentMode: 10
      - time: 1.63333333
        value: .179104507
        inSlope: 2.41834593
        outSlope: 2.41834593
        tangentMode: 10
      - time: 1.7833333
        value: 1
        inSlope: 2.73631883
        outSlope: 2.73631883
        tangentMode: 10
      - time: 2.4666667
        value: 1
        inSlope: 0
        outSlope: 0
        tangentMode: 10
      m_PreInfinity: 2
      m_PostInfinity: 2
    attribute: m_Color.g
    path: 
    classID: 108
    script: {fileID: 0}
  - curve:
      serializedVersion: 2
      m_Curve:
      - time: 0
        value: .305970132
        inSlope: -.655650258
        outSlope: -.655650258
        tangentMode: 10
      - time: .466666669
        value: 0
        inSlope: .945495665
        outSlope: .945495665
        tangentMode: 10
      - time: .733333349
        value: .679104447
        inSlope: .329823852
        outSlope: .329823852
        tangentMode: 10
      - time: .966666639
        value: .23880595
        inSlope: -.686318517
        outSlope: -.686318517
        tangentMode: 10
      - time: 1.2833333
        value: .401685625
        inSlope: -.0607945919
        outSlope: -.0607945919
        tangentMode: 10
      - time: 1.63333333
        value: .179104507
        inSlope: 2.41834593
        outSlope: 2.41834593
        tangentMode: 10
      - time: 1.7833333
        value: 1
        inSlope: 2.73631883
        outSlope: 2.73631883
        tangentMode: 10
      - time: 2.4666667
        value: 1
        inSlope: 0
        outSlope: 0
        tangentMode: 10
      m_PreInfinity: 2
      m_PostInfinity: 2
    attribute: m_Color.b
    path: 
    classID: 108
    script: {fileID: 0}
  m_SampleRate: 60
  m_WrapMode: 0
  m_Bounds:
    m_Center: {x: 0, y: 0, z: 0}
    m_Extent: {x: 0, y: 0, z: 0}
  m_MuscleClipInfo:
    m_StartTime: 0
    m_StopTime: 1
    m_OrientationOffsetY: 0
    m_Level: 0
    m_CycleOffset: 0
    m_LoopBlend: 0
    m_LoopBlendOrientation: 0
    m_LoopBlendPositionY: 0
    m_LoopBlendPositionXZ: 0
    m_KeepOriginalOrientation: 0
    m_KeepOriginalPositionY: 1
    m_KeepOriginalPositionXZ: 0
    m_HeightFromFeet: 0
    m_Mirror: 0
  m_EditorCurves:
  - curve:
      serializedVersion: 2
      m_Curve:
      - time: 0
        value: 1
        inSlope: 0
        outSlope: 0
        tangentMode: 10
      - time: .466666669
        value: 1
        inSlope: 0
        outSlope: 0
        tangentMode: 10
      - time: .966666639
        value: 1
        inSlope: 0
        outSlope: 0
        tangentMode: 10
      - time: 1.2833333
        value: 1
        inSlope: 0
        outSlope: 0
        tangentMode: 10
      - time: 1.63333333
        value: 1
        inSlope: 0
        outSlope: 0
        tangentMode: 10
      - time: 1.7833333
        value: 1
        inSlope: 0
        outSlope: 0
        tangentMode: 10
      - time: 2.4666667
        value: 1
        inSlope: 0
        outSlope: 0
        tangentMode: 10
      m_PreInfinity: 2
      m_PostInfinity: 2
    attribute: m_Color.r
    path: 
    classID: 108
    script: {fileID: 0}
  - curve:
      serializedVersion: 2
      m_Curve:
      - time: 0
        value: 1
        inSlope: 1.99985385
        outSlope: 1.99985385
        tangentMode: 10
      - time: .400000006
        value: 1.79994154
        inSlope: .761288106
        outSlope: .761288106
        tangentMode: 10
      - time: 1.14999998
        value: 1.44198334
        inSlope: .194709167
        outSlope: .194709167
        tangentMode: 10
      - time: 1.66666663
        value: 1.88977623
        inSlope: -.118091375
        outSlope: -.118091375
        tangentMode: 10
      - time: 2.45000005
        value: 1.02585447
        inSlope: -1.10287869
        outSlope: -1.10287869
        tangentMode: 10
      m_PreInfinity: 2
      m_PostInfinity: 2
    attribute: m_Intensity
    path: 
    classID: 108
    script: {fileID: 0}
  - curve:
      serializedVersion: 2
      m_Curve:
      - time: 0
        value: 0
        inSlope: 23.5132217
        outSlope: 23.5132217
        tangentMode: 10
      - time: .349999994
        value: 8.22962761
        inSlope: 11.3286457
        outSlope: 11.3286457
        tangentMode: 10
      - time: .700000048
        value: 7.9300518
        inSlope: .123713642
        outSlope: .123713642
        tangentMode: 10
      - time: .933333278
        value: 8.18750191
        inSlope: -5.88963127
        outSlope: -5.88963127
        tangentMode: 10
      - time: 1.26666665
        value: 3.89329457
        inSlope: -3.2511301
        outSlope: -3.2511301
        tangentMode: 10
      - time: 1.64999998
        value: 6.33909941
        inSlope: -2.80302906
        outSlope: -2.80302906
        tangentMode: 10
      - time: 1.96666658
        value: 2.54340076
        inSlope: -7.90191841
        outSlope: -7.90191841
        tangentMode: 10
      - time: 2.20000005
        value: 1.65266943
        inSlope: -4.67577887
        outSlope: -4.67577887
        tangentMode: 10
      - time: 2.48333335
        value: .0846633911
        inSlope: -5.53413963
        outSlope: -5.53413963
        tangentMode: 10
      m_PreInfinity: 2
      m_PostInfinity: 2
    attribute: m_Range
    path: 
    classID: 108
    script: {fileID: 0}
  - curve:
      serializedVersion: 2
      m_Curve:
      - time: 0
        value: .305970132
        inSlope: -.655650258
        outSlope: -.655650258
        tangentMode: 10
      - time: .466666669
        value: 0
        inSlope: .945495665
        outSlope: .945495665
        tangentMode: 10
      - time: .733333349
        value: .679104447
        inSlope: .329823852
        outSlope: .329823852
        tangentMode: 10
      - time: .966666639
        value: .23880595
        inSlope: -.686318517
        outSlope: -.686318517
        tangentMode: 10
      - time: 1.2833333
        value: .401685625
        inSlope: -.0607945919
        outSlope: -.0607945919
        tangentMode: 10
      - time: 1.63333333
        value: .179104507
        inSlope: 2.41834593
        outSlope: 2.41834593
        tangentMode: 10
      - time: 1.7833333
        value: 1
        inSlope: 2.73631883
        outSlope: 2.73631883
        tangentMode: 10
      - time: 2.4666667
        value: 1
        inSlope: 0
        outSlope: 0
        tangentMode: 10
      m_PreInfinity: 2
      m_PostInfinity: 2
    attribute: m_Color.g
    path: 
    classID: 108
    script: {fileID: 0}
  - curve:
      serializedVersion: 2
      m_Curve:
      - time: 0
        value: .305970132
        inSlope: -.655650258
        outSlope: -.655650258
        tangentMode: 10
      - time: .466666669
        value: 0
        inSlope: .945495665
        outSlope: .945495665
        tangentMode: 10
      - time: .733333349
        value: .679104447
        inSlope: .329823852
        outSlope: .329823852
        tangentMode: 10
      - time: .966666639
        value: .23880595
        inSlope: -.686318517
        outSlope: -.686318517
        tangentMode: 10
      - time: 1.2833333
        value: .401685625
        inSlope: -.0607945919
        outSlope: -.0607945919
        tangentMode: 10
      - time: 1.63333333
        value: .179104507
        inSlope: 2.41834593
        outSlope: 2.41834593
        tangentMode: 10
      - time: 1.7833333
        value: 1
        inSlope: 2.73631883
        outSlope: 2.73631883
        tangentMode: 10
      - time: 2.4666667
        value: 1
        inSlope: 0
        outSlope: 0
        tangentMode: 10
      m_PreInfinity: 2
      m_PostInfinity: 2
    attribute: m_Color.b
    path: 
    classID: 108
    script: {fileID: 0}
  m_EulerEditorCurves: []
  m_Events: []
